<?xml version="1.0" encoding="UTF-8"?>
<CustomTab xmlns="http://soap.sforce.com/2006/04/metadata">
    <label>HR Users</label>
    <mobileReady>false</mobileReady>
    <motif>Custom15: People</motif>
    <page>HRUserPage</page>
</CustomTab>
